 ele,1450
 est,1392
 que,1366
ele ,1305
 par,1286
ndo ,1255
que ,1233
 com,1178
para,1077
não ,1008
 não,1005
ara ,897
ando,857
ado ,778
uma ,768
ram ,764
ada ,726
nte ,711
com ,700
ava ,679
 men,646
esta,610
enin,606
meni,602
ino ,597
 uma,592
nino,590
dos ,588
ente,580
sse ,503
aram,503
 voc,481
você,481
inha,479
ocê ,458
tou ,445
tava,437
das ,430
rou ,420
 por,417
 dis,404
nto ,399
eira,396
stav,382
 fic,376
 olh,375
mos ,371
rada,368
estr,362
nha ,355
ment,348
ira ,345
diss,342
les ,339
isse,339
 qua,337
hou ,334
eles,332
trad,332
stra,330
mas ,327
ento,326
 tem,326
ela ,324
tinh,323
 tin,317
 con,314
enta,313
segu,309
 des,302
cou ,302
está,300
 bem,299
bem ,299
stá ,298
 esc,297
ados,296
por ,288
 car,287
inho,282
ais ,279
nho ,279
 alg,278
 mas,277
ores,270
 pod,269
ido ,269
 pel,267
ante,265
via ,263
cont,263
sent,263
 sen,256
algu,255
 sob,252
 ent,252
tos ,251
 seu,250
mais,244
olho,241
fica,241
 lev,240
ntou,234
ito ,234
res ,234
quan,233
 seg,230
 cam,227
 hav,226
ria ,225
 mai,222
 col,215
escu,214
lhou,213
anto,212
onde,211
avia,210
havi,209
como,208
 até,208
até ,208
tudo,207
rado,207
ver ,206
olha,206
omo ,204
tas ,204
udo ,203
 enc,201
nos ,200
 tud,200
ois ,198
rar ,198
lgum,197
nas ,197
amos,196
bert,194
tado,194
amin,193
carr,193
leva,192
nde ,192
erto,192
ros ,190
 sua,189
 cin,187
adas,187
 atr,186
gar ,186
sso ,186
 cor,183
 dep,183
ras ,182
hos ,182
 mor,182
endo,182
sobr,180
 del,179
baix,179
obre,178
 out,178
egui,178
icar,178
 cob,177
 num,177
tão ,177
bre ,176
outr,175
 ond,174
sim ,174
rio ,172
tes ,172
 ter,170
sta ,169
ontr,169
minh,169
vam ,169
pela,168
entr,168
avam,168
 sim,168
amen,167
enco,167
tro ,166
iam ,165
icou,164
 hom,164
home,164
pode,164
cobe,163
ober,163
mpo ,163
dia ,162
colo,162
rand,161
aixo,161
fico,161
come,161
 ach,160
temp,160
 lon,159
cami,159
 pap,159
cinz,158
 ver,158
las ,158
 dei,157
orta,157
gou ,157
pai ,157
 fog,156
uand,155
scur,155
 mão,155
tar ,155
 dos,154
empo,154
 che,153
indo,153
rinh,153
depo,152
pois,152
ixo ,152
arri,152
omem,151
ntra,150
epoi,150
cara,150
 vol,150
ora ,150
vez ,150
dele,149
eus ,149
oloc,149
seu ,148
volt,148
 coi,147
cois,147
mem ,147
 esp,146
oisa,146
eria,145
 aqu,145
 peg,145
 pre,144
arra,144
trav,144
irou,143
ção ,142
acho,142
rrin,141
emos,141
ncon,140
 cab,140
eiro,140
 ali,140
pare,139
 era,139
era ,139
loco,139
 for,139
rta ,138
isso,138
 dia,137
 cas,137
cos ,136
 faz,136
 pro,135
atra,135
 das,134
sei ,134
quer,134
evan,133
esse,133
ima ,132
papa,132
reci,131
vou ,131
 ser,130
apai,130
esto,130
 sei,130
lhad,130
lhos,129
zer ,129
ocou,129
 nos,129
 pas,129
gua ,128
pass,128
ida ,127
nada,127
serv,127
egou,126
rtor,126
hão ,125
dade,125
eram,125
orre,124
 mui,124
muit,124
rest,123
 águ,123
água,123
ali ,123
 abr,123
ueir,122
gent,122
xou ,121
cons,121
 pen,121
sua ,120
sas ,120
elho,120
car ,119
erra,119
espe,119
 gen,119
 iss,119
 aco,118
 per,118
has ,118
 emp,118
 vai,118
 fri,117
vant,117
 obs,117
vai ,117
ntes,116
ntad,116
casa,116
uito,116
hado,115
 cai,115
elo ,115
ade ,115
obse,114
bser,114
lho ,113
ntro,113
egur,113
mão ,112
sto ,112
vamo,112
arad,111
 nad,111
iram,110
hand,110
 foi,110
foi ,110
undo,109
aqui,109
stou,109
guei,109
nham,109
elas,109
 tod,109
 ven,109
lado,108
eio ,108
iro ,108
 sab,108
cima,108
rent,106
uas ,106
acha,106
deix,106
entã,106
ntão,106
port,106
desc,105
 vel,105
 dev,105
cia ,104
cabe,104
erva,104
 vam,104
 emb,103
vess,103
egar,103
ham ,103
deir,103
cada,102
tand,102
 ten,102
seus,102
 vir,102
gum ,102
 man,102
este,101
ias ,101
tra ,101
ende,101
chão,101
idad,101
ogue,101
cord,100
 res,100
 nas,100
eve ,99
mort,99
corr,99
faze,99
deu ,99
ntar,99
fogu,99
nta ,98
sou ,98
 lad,97
 sem,97
 fal,97
 arr,97
 jun,97
guma,96
 ped,96
 mar,96
trás,96
utro,96
tem ,96
rás ,95
nda ,95
tore,95
unto,95
olta,95
adei,95
 mei,94
terr,94
 luz,93
podi,93
 chã,93
isa ,93
long,93
dor ,93
junt,93
oite,92
odia,92
cho ,92
 lat,92
arec,92
 noi,91
trar,91
noit,90
 tra,90
 cim,90
aque,90
qui ,90
sem ,89
tent,89
uran,89
vés ,89
abri,89
pego,89
pens,89
pelo,89
numa,88
num ,88
rrou,88
ico ,87
luz ,87
ura ,87
los ,87
assa,87
rte ,87
 fre,87
 ela,87
ite ,86
braç,86
 vez,86
frio,85
onse,85
velh,85
lha ,85
pont,85
onte,85
ampa,85
azer,84
osta,84
 pra,84
 tir,84
uant,84
arro,84
meio,83
essa,83
hada,83
guir,83
 tal,83
fren,83
tend,82
dão ,82
inze,82
 nov,82
ugar,82
 qui,82
lhan,82
vent,82
lata,82
zent,81
inza,81
lto ,81
 mes,81
 lug,81
luga,81
eito,81
fora,81
sper,81
acor,80
edor,80
rava,80
 alt,80
 tam,80
stic,79
utra,79
chei,79
aind,79
ios ,79
 pou,79
 flo,78
dorm,78
ação,78
nseg,78
ser ,78
rara,78
ões ,78
talv,78
alve,78
lvez,78
 mad,78
ilha,78
nzen,77
 ant,77
tico,77
eça ,77
ravé,77
avés,77
cheg,77
 cha,77
eia ,77
 pes,77
rto ,77
çou ,77
part,76
made,76
pouc,76
flor,75
ança,75
onta,75
arre,75
ina ,75
ntos,75
temo,75
omer,75
dent,74
cost,74
quen,74
redo,74
lore,73
uro ,73
raço,73
aço ,73
ecid,73
 gra,73
ssar,73
agar,73
eto ,73
 nev,73
edo ,73
 bra,72
cida,72
curi,72
ridã,72
idão,72
abeç,72
beça,72
 den,72
 aba,72
sob ,72
paro,72
urid,71
mund,71
 bar,71
ndeu,71
 pon,71
tros,71
uer ,71
star,71
ter ,71
 rev,70
ntre,70
camp,70
esso,70
dou ,69
rvor,69
vore,69
 met,69
tal ,69
lhas,69
guém,69
uém ,69
ouco,69
heir,68
 bai,68
 pux,68
quel,68
dar ,68
esco,68
quei,68
arei,68
 ouv,68
ouvi,68
nhou,67
alto,67
 árv,67
árvo,67
vand,67
 red,67
eixa,67
comp,67
 apa,66
igo ,66
 deu,66
zas ,66
dian,66
iant,66
oder,66
tara,66
morr,66
pilh,66
orda,65
lona,65
ásti,65
cha ,65
viro,65
ixou,65
 dor,65
elha,65
arou,65
embr,65
mar ,65
ona ,64
lást,64
rra ,64
nzas,64
rave,64
hega,64
nela,64
 vou,64
sabe,64
 sub,63
 aga,63
isas,63
aixa,63
dado,63
esca,63
rro ,63
ador,62
 plá,62
plás,62
erta,62
idos,62
sar ,62
olto,62
cend,62
lver,62
dura,62
aves,62
 inc,62
ata ,62
asta,62
ogo ,62
ços ,61
osso,61
ltou,61
ormi,61
cido,61
 bei,61
anel,61
arte,61
asa ,61
ensa,61
arar,61
eita,61
 diz,61
 beb,61
omeç,61
 sal,60
tura,60
 cer,60
gura,60
inda,60
tiro,60
revó,60
evól,60
vólv,60
ólve,60
tive,60
aber,60
saco,60
lta ,60
rece,60
neve,60
ecia,60
esmo,59
esti,59
inte,59
tant,59
uns ,59
garr,59
riu ,59
 chu,59
 fer,59
ferr,59
uco ,59
subi,58
 nen,58
nenh,58
enhu,58
nhum,58
des ,58
osto,58
etro,58
 pos,58
izer,58
sapa,58
reia,58
trem,58
fund,57
 ain,57
eque,57
empu,57
ncia,57
 rec,57
aria,57
 are,57
mesm,57
zinh,57
resp,56
 can,56
gem ,56
sos ,56
azia,56
briu,56
vel ,56
 fei,56
tira,56
reto,56
 tre,56
 sec,56
lhar,56
riam,56
odo ,56
 mun,55
anta,55
atrá,55
imen,55
pres,55
lina,55
toda,55
urro,55
pos ,55
stan,55
cas ,55
smo ,54
chou,54
lou ,54
 peq,54
pequ,54
metr,54
beir,54
ode ,54
sado,54
todo,54
ntas,53
ntan,53
suas,53
abai,53
 cos,53
 jan,53
ero ,53
asso,53
pera,53
vão ,53
apar,53
hara,53
leir,53
cham,53
pess,53
 med,53
ombr,52
gara,52
mpur,52
purr,52
 sid,52
sido,52
comi,52
ama ,52
amar,52
rem ,51
 sol,51
hava,51
rvan,51
cado,51
rrer,51
tre ,51
deri,51
manh,51
enha,51
lmen,51
uira,51
sten,50
 cad,50
asse,50
mbra,50
sava,50
aços,50
into,50
 dur,50
orto,50
deit,50
rast,50
 ass,50
são ,50
alha,50
ssou,50
bebe,50
qual,49
vava,49
mida,49
 cal,49
ergu,49
enti,49
isto,49
 rio,49
trou,49
nou ,49
poss,49
ceu ,49
cer ,49
curv,49
 ama,49
dize,49
ssoa,49
medo,49
 nós,49
nós ,49
 rou,48
 son,48
idas,48
ande,48
ncos,48
 som,48
 sin,48
 usa,48
vaga,48
 gar,48
rant,48
ongo,48
fez ,48
sara,48
aco ,48
inta,48
caix,48
ueim,48
eima,48
urou,48
 ban,48
fogo,48
dire,48
 jar,48
fala,48
curo,47
 int,47
guro,47
ssem,47
 fez,47
 apo,47
 pai,47
feit,47
pret,47
ordo,47
raia,47
 tos,47
ozin,47
roup,46
oupa,46
anha,46
hora,46
chad,46
emba,46
uxou,46
rreg,46
 bol,46
oas ,46
sand,46
rras,46
ase ,46
 lam,46
chuv,46
pega,46
 ace,46
 mol,46
 doi,46
dois,46
ampo,46
rdad,46
ingu,46
ilho,46
 tão,46
har ,46
odem,46
nter,45
bia ,45
pas ,45
pedr,45
quil,45
 fos,45
rdou,45
atos,45
mbro,45
ngo ,45
rtos,45
 cho,45
asac,45
demo,45
tada,45
osse,45
nqua,45
 cur,45
 sop,45
scut,45
 nin,45
mãos,45
ãos ,45
 vão,45
rtas,44
cand,44
edra,44
negr,44
puxo,44
ano ,44
meta,44
scul,44
mpar,44
uva ,44
omen,44
itad,44
 enq,44
enqu,44
dist,44
devi,44
enso,44
 dir,44
onge,44
chor,44
reme,44
 cri,43
anda,43
gran,43
deus,43
 adi,43
chil,43
 bom,43
huva,43
volv,43
anhã,43
nhã ,43
prai,43
aia ,43
mont,43
hama,43
soas,43
 fun,43
ens ,43
emen,43
 vid,42
peda,42
 fum,42
 ros,42
alou,42
ica ,42
adia,42
ochi,42
rer ,42
eta ,42
 vas,42
tor ,42
sque,42
der ,42
urva,42
folh,42
arca,42
evia,42
ning,42
ngué,42
quin,42
gue ,42
jarr,42
cura,41
sonh,41
ênci,41
ncio,41
