 que,4209
que ,4151
 con,2721
 par,1902
los ,1773
aba ,1766
una ,1723
 una,1684
con ,1646
ado ,1624
ndo ,1509
 los,1489
las ,1477
nte ,1390
 hab,1326
 por,1241
 las,1176
era ,1131
 est,1123
ando,1111
por ,1105
ente,1105
 com,1059
ara ,1045
 des,940
abía,920
del ,908
ada ,904
 per,891
ero ,883
ido ,876
para,871
habí,825
dos ,819
 del,814
ante,813
bía ,809
ient,777
ión ,762
esta,756
nto ,732
nos ,715
 cua,708
ment,663
ento,648
enta,615
lla ,612
como,609
 ent,604
sta ,603
omo ,603
ría ,591
 hac,576
cont,566
 tod,558
 ten,555
cuan,550
pero,549
ras ,544
más ,543
taba,541
ción,541
adre,537
entr,533
mos ,528
 era,521
 sus,508
dad ,508
das ,507
 lle,501
 cas,501
uand,500
 más,499
dre ,498
res ,494
 pre,492
ana ,490
cia ,483
tos ,480
 pro,477
 qui,477
bre ,476
 tra,464
pari,458
ari ,449
ntes,445
enci,445
ntra,443
sus ,442
ella,440
tes ,439
les ,436
 pas,431
 ell,427
 man,419
 rec,417
nes ,416
nas ,413
cho ,412
ncia,405
 alg,399
 ver,396
illa,395
 pue,392
tas ,388
 tie,381
 sin,379
ros ,379
ían ,379
ces ,378
todo,372
ida ,371
nta ,371
ien ,364
ombr,363
 sab,362
idad,359
tro ,359
aban,357
 enc,357
ació,357
sto ,355
 fue,352
ban ,351
tado,348
amos,347
qué ,347
 cam,344
 sen,341
día ,340
 esp,340
leva,338
casa,336
 pad,334
iend,334
quie,333
 car,332
padr,332
 qué,329
iemp,328
sent,327
asa ,326
 mad,325
 res,324
 esc,323
odo ,322
rse ,320
 sie,316
llo ,314
ños ,312
pare,312
tra ,307
 mir,305
 mar,305
esto,305
llev,304
ano ,304
baba,303
espe,302
endo,302
raba,300
obre,300
jos ,298
stab,298
 otr,298
hace,296
asta,295
 dec,294
comp,292
 sob,292
ora ,292
mano,291
enía,290
elo ,290
sobr,290
nía ,289
amen,289
sin ,288
 ant,287
 bab,285
uest,284
ados,283
 has,282
ron ,282
mpre,279
rte ,278
tení,273
tien,272
mien,268
ones,267
 ade,266
 son,264
 sal,263
iera,263
 mis,263
 pie,262
tras,259
 int,257
 cab,257
 día,254
 col,254
pues,252
 sol,252
adas,251
cía ,251
inte,250
acer,250
ios ,250
 mam,250
 cor,249
nde ,248
desp,248
mbre,247
 aqu,247
 dic,246
sas ,245
mira,245
ambi,244
 men,243
anta,243
ontr,242
part,242
ble ,239
eza ,239
egun,237
hora,235
iene,235
reci,235
acia,234
 año,233
ensa,233
 gra,232
pasa,232
rme ,232
lia ,231
tar ,231
esa ,231
oche,229
 ser,229
ello,229
ias ,229
 pri,229
ese ,228
hast,227
 vis,227
lado,226
tant,226
echo,226
ica ,224
 señ,223
madr,221
eso ,221
 vez,220
vez ,220
 dej,220
ico ,220
aque,220
 dij,220
cons,219
está,219
rlo ,217
uier,217
ijo ,216
 her,216
ista,216
 arr,216
once,215
illo,215
ién ,214
 uno,214
 hom,214
 ven,214
eces,214
regu,214
 tan,213
deci,213
ntre,213
 vol,213
arec,212
rada,210
homb,210
cabe,209
erta,209
preg,209
nter,208
ran ,208
cien,208
 emp,207
sper,206
segu,206
adel,206
ntad,205
empr,204
gunt,204
 dos,203
ería,203
rta ,203
uien,201
nten,201
ris ,201
pres,200
rman,199
 cue,198
mana,198
 tam,197
 ojo,197
llas,197
algo,197
ándo,197
erma,196
 pod,196
llos,196
años,196
ajo ,196
uert,196
rado,195
ías ,195
iert,195
pera,195
che ,194
arte,194
 lla,193
ojos,193
lgo ,193
ina ,193
osa ,192
sabe,192
arse,191
fuer,190
 eso,189
poco,189
haci,188
nada,188
 dis,188
oco ,188
reco,188
ita ,188
toda,187
vida,186
ende,186
able,185
aría,185
estr,185
 sup,185
rio ,185
 nad,184
qued,184
 vie,183
bajo,183
 seg,183
 aho,183
volv,182
siem,182
pre ,182
nces,182
 nos,182
ueda,181
ntar,180
ulá ,180
iero,180
stro,180
herm,179
 pal,179
vuel,179
ahor,179
seño,179
 cal,178
ino ,178
sión,178
eñor,178
llam,177
 ros,177
 abd,176
daba,176
onte,176
 cer,176
alia,176
bien,175
desd,175
anos,175
erda,175
 kab,175
abdu,174
bdul,174
dulá,174
eran,174
tre ,174
cuer,174
habl,174
 niñ,173
nton,173
cion,173
 así,173
caba,172
 inc,172
vist,172
unta,172
cada,171
nunc,171
 cos,171
endi,171
así ,171
 cla,171
otro,171
 poc,171
sien,171
 muc,170
much,170
des ,170
rás ,169
ego ,169
ario,169
 rep,169
 imp,167
prim,167
rar ,166
tonc,166
 pen,166
lega,165
ecía,165
unto,165
rto ,165
tamb,164
aron,164
 fin,164
otra,164
idri,164
 sól,163
bién,163
erra,163
anto,163
enco,163
 vue,163
anci,163
 mie,162
erto,162
lar ,162
isto,161
tan ,161
quel,161
sita,161
 esa,161
sonr,161
 idr,161
dris,161
sólo,160
ólo ,160
mbié,160
uego,160
apar,160
ura ,159
ntos,159
 cie,159
 pel,159
cier,159
abla,159
 nue,159
 tha,159
thal,159
hali,159
igo ,158
lama,158
uell,158
 apa,158
onta,157
tend,157
deja,157
rend,157
ntó ,157
tal ,157
lant,156
ste ,156
 hij,155
esde,155
mpo ,155
 vid,155
stá ,155
buen,154
dijo,154
rle ,154
cio ,154
ice ,154
mamá,154
amá ,154
 pla,153
 bue,153
aber,153
 bie,152
 sue,152
ene ,152
stan,152
dice,152
tiem,151
cos ,151
nca ,151
eque,151
pren,151
 cre,151
 vec,151
lta ,151
empo,150
ione,150
abez,150
 ins,150
 baj,149
sde ,148
lleg,148
algu,148
beza,148
ales,147
 peq,147
pequ,147
queñ,147
 all,147
mas ,147
raci,147
esca,146
rand,146
gran,145
eres,145
mism,145
 muy,144
casi,144
cer ,144
 cóm,144
trab,143
cómo,143
espu,143
 wah,143
dati,143
ati ,143
onde,142
cha ,142
cono,142
prop,142
arme,142
arwa,142
wahd,142
ahda,142
hdat,142
ñor ,142
 deb,141
orta,141
abul,141
parw,141
rwan,141
wana,141
ila ,141
corr,140
muy ,139
 tar,139
habi,139
ujer,139
serv,139
 abr,139
fue ,139
dido,139
rla ,139
abaj,138
ecir,138
odos,138
uso ,138
cami,138
medi,137
cara,137
 lad,137
sado,137
aman,137
pens,137
iado,137
gar ,136
verd,136
ena ,136
echa,136
pued,136
rant,136
uerd,136
rece,136
mada,135
nado,135
 tre,135
ómo ,135
ama ,135
 coc,135
ener,134
 aca,134
unos,134
vien,133
omen,133
vent,133
argo,132
 noc,132
ucho,132
resp,132
taci,132
 pon,132
abit,131
 gen,131
lida,131
rill,131
abi ,131
uno ,130
larg,130
uent,130
ver ,130
escu,130
desc,130
ndos,130
 atr,130
ostr,130
bul ,130
 mej,129
tido,129
erca,129
emen,129
kabu,129
noch,128
bían,128
ito ,128
anas,128
ace ,128
rde ,127
sos ,127
ncon,127
star,127
gado,127
enti,127
cuen,126
 mon,126
uera,126
 hec,126
stra,126
 ace,125
hech,125
vece,125
 exp,125
uma ,125
 viv,124
 dur,124
unca,124
eron,124
rime,124
 muj,123
muje,123
 nun,123
oso ,123
tros,123
tada,123
 nab,123
nabi,123
lien,122
dado,122
ubie,122
ndol,122
 chi,122
man ,122
ria ,121
 lar,121
 ayu,121
eros,121
onoc,121
erte,121
ngo ,121
port,121
iba ,121
 sil,121
uelt,121
cido,121
tene,120
erlo,120
has ,120
 cad,119
 ese,119
bita,119
 med,119
nido,119
cosa,119
form,119
alab,119
 nil,119
nila,119
blan,118
dió ,118
idos,118
ntan,118
tura,117
enos,117
dond,117
osas,117
niño,117
recu,117
rgo ,116
rque,116
ntab,116
abra,116
come,116
conv,116
ués ,116
irad,116
meno,115
 lev,115
nque,115
itar,115
 for,115
spué,115
pués,115
eja ,115
trás,115
tori,114
tard,114
ucha,114
espa,114
esti,114
bra ,114
 sig,114
 lue,114
lueg,114
ompr,114
rent,114
arri,114
vaba,113
ador,113
dose,113
 jun,113
junt,113
 mas,113
imer,113
test,113
 agu,112
 tom,112
pala,112
vier,112
ible,112
ber ,112
ropi,112
cado,112
 mes,112
 tim,112
ueño,111
cas ,111
 aun,111
acab,111
 hub,111
ntas,111
alle,110
ues ,110
arga,110
cerc,110
laba,110
char,110
orma,110
ose ,110
dor ,110
acio,110
cir ,109
tía ,109
ncio,109
guie,109
sigu,109
gún ,109
uelo,109
olvi,109
dea ,108
visi,108
eras,108
uran,108
 mal,108
 reg,108
dio ,107
año ,107
itac,107
 hay,107
iste,107
mis ,107
baja,106
ine ,106
dura,105
 don,105
rdad,105
nder,105
rost,105
lor ,105
 pos,105
hijo,104
mili,104
mbro,104
oda ,104
edad,104
cias,104
isa ,103
marc,103
onri,103
enca,103
ecue,103
dent,103
rien,102
onsi,102
empe,102
arle,102
eno ,102
pone,102
ismo,102
 can,102
 asi,102
han ,102
timu,102
 fam,101
amil,101
arro,101
quiz,101
uizá,101
izá ,101
acía,101
bría,101
resi,101
eta ,101
esen,101
asum,101
lle ,101
cto ,100
 dem,100
allí,100
llí ,100
rido,100
ser ,100
arla,100
smo ,100
imur,100
mur ,100
emos,99
ilia,99
ores,99
 det,99
arlo,99
isit,99
anza,99
eía ,99
iona,99
mar ,99
 tal,99
 hor,98
orqu,98
ompa,98
 les,98
uro ,98
 tem,98
ima ,98
dese,98
ecid,98
 han,98
mama,98
oria,97
enas,97
porq,97
incl,97
undo,97
amin,97
gent,97
gust,97
suel,97
puer,97
sali,97
tran,97
ecor,97
sill,97
dar ,97
suma,97
asi ,96
mina,96
toma,96
dría,96
abrí,96
habe,96
ndid,96
nuev,96
fami,95
gua ,95
ato ,95
bell,95
azo ,95
masu,95
rra ,94
odía,94
zos ,94
evan,94
tres,94
aunq,94
unqu,94
onve,94
sabí,94
asad,94
erdo,94
rió ,94
ela ,94
trat,94
vía ,93
jer ,93
vert,93
 acu,93
bier,93
nda ,93
 iba,93
epar,93
desa,93
tand,93
land,92
spec,92
empl,92
scur,92
hubi,92
alta,92
labr,92
aso ,92
arra,92
iese,92
 sem,92
jado,92
 cin,91
trar,91
cord,91
 dar,91
hací,91
sona,91
espo,91
éndo,91
lgun,91
ece ,91
erse,91
ejo ,91
emas,91
kos ,91
evab,90
mbra,90
usta,90
die ,90
esco,90
nco ,90
plan,90
paci,90
stad,90
este,89
bras,89
 mod,89
razo,89
 ext,89
 sac,89
mari,89
rese,89
 dor,88
 neg,88
nece,88
dich,88
rdo ,88
arti,88
arre,88
conc,88
reve,88
 inf,88
 dir,88
íamo,88
dali,88
ulta,88
 fot,88
 aco,88
quer,87
nar ,87
itad,87
enes,87
cuel,87
braz,87
 sor,87
días,87
pelo,87
sar ,87
egur,87
estu,87
cant,87
cula,87
 ocu,86
ecto,86
rist,86
ñas ,86
 ded,86
inti,86
pers,86
iénd,86
cort,86
orre,86
olor,86
anda,86
arta,86
yan ,86
foto,86
elan,85
alin,85
 apr,85
 cog,85
cogi,85
quit,85
enid,85
